Biostat 203B Homework 5
…
Engine-Specific Arguments:
  standardize = FALSE

Computational engine: glmnet 

# Tune the model(the penalty and mixture hyperparameters).

param_grid <- grid_regular(
  penalty(range = c(-6, 3)), 
  mixture(),
  levels = c(100, 5)
  ) |>
  print()

# A tibble: 500 × 2
      penalty mixture
        <dbl>   <dbl>
 1 0.000001         0
 2 0.00000123       0
 3 0.00000152       0
 4 0.00000187       0
 5 0.00000231       0
 6 0.00000285       0
 7 0.00000351       0
 8 0.00000433       0
 9 0.00000534       0
10 0.00000658       0
# ℹ 490 more rows
…
# Visualize
logit_fit |>
  # aggregate metrics from K folds
  collect_metrics() |>
  print(width = Inf) |>
  filter(.metric == "roc_auc") |>
  ggplot(mapping = aes(x = penalty, y = mean, color = factor(mixture))) +
  geom_point() +
  labs(x = "Penalty", y = "CV AUC") +
  scale_x_log10()

# A tibble: 1,000 × 8
      penalty mixture .metric  .estimator  mean     n std_err
        <dbl>   <dbl> <chr>    <chr>      <dbl> <int>   <dbl>
 1 0.000001         0 accuracy binary     0.562     5 0.00230
 2 0.000001         0 roc_auc  binary     0.588     5 0.00246
 3 0.00000123       0 accuracy binary     0.562     5 0.00230
 4 0.00000123       0 roc_auc  binary     0.588     5 0.00246
 5 0.00000152       0 accuracy binary     0.562     5 0.00230
 6 0.00000152       0 roc_auc  binary     0.588     5 0.00246
 7 0.00000187       0 accuracy binary     0.562     5 0.00230
 8 0.00000187       0 roc_auc  binary     0.588     5 0.00246
 9 0.00000231       0 accuracy binary     0.562     5 0.00230
10 0.00000231       0 roc_auc  binary     0.588     5 0.00246
   .config               
   <chr>                 
 1 Preprocessor1_Model001
 2 Preprocessor1_Model001
 3 Preprocessor1_Model002
 4 Preprocessor1_Model002
 5 Preprocessor1_Model003
 6 Preprocessor1_Model003
 7 Preprocessor1_Model004
 8 Preprocessor1_Model004
 9 Preprocessor1_Model005
10 Preprocessor1_Model005
# ℹ 990 more rows
…
#collect_metrics(mimic_model_st, "rf_res")

collect_parameters(mimic_model_st, "rf_res")

# A tibble: 25 × 5
   member       mtry trees terms                   coef
   <chr>       <int> <int> <chr>                  <dbl>
 1 rf_res_1_01     1   100 .pred_yes_rf_res_1_01 0     
 2 rf_res_1_02     1   200 .pred_yes_rf_res_1_02 0     
 3 rf_res_1_03     1   300 .pred_yes_rf_res_1_03 0     
 4 rf_res_1_04     1   400 .pred_yes_rf_res_1_04 0     
 5 rf_res_1_05     1   500 .pred_yes_rf_res_1_05 0     
 6 rf_res_1_06     2   100 .pred_yes_rf_res_1_06 0.223 
 7 rf_res_1_07     2   200 .pred_yes_rf_res_1_07 0.408 
 8 rf_res_1_08     2   300 .pred_yes_rf_res_1_08 0.825 
 9 rf_res_1_09     2   400 .pred_yes_rf_res_1_09 0.0871
10 rf_res_1_10     2   500 .pred_yes_rf_res_1_10 0     
# ℹ 15 more rows
…
